{"count":17848,"next":"https://rebrickable.com/api/v3/lego/sets/?page=2","previous":null,"results":[{"set_num":"001-1","name":"Gears","year":1965,"theme_id":1,"num_parts":43,"set_img_url":"https://cdn.rebrickable.com/media/sets/001-1/11530.jpg","set_url":"https://rebrickable.com/sets/001-1/gears/","last_modified_dt":"2018-05-05T20:39:47.277922Z"},{"set_num":"0011-2","name":"Town Mini-Figures","year":1979,"theme_id":84,"num_parts":12,"set_img_url":"https://cdn.rebrickable.com/media/sets/0011-2/3318.jpg","set_url":"https://rebrickable.com/sets/0011-2/town-mini-figures/","last_modified_dt":"2021-05-10T20:02:01.041419Z"},{"set_num":"0011-3","name":"Castle 2 for 1 Bonus Offer","year":1987,"theme_id":199,"num_parts":0,"set_img_url":"https://cdn.rebrickable.com/media/sets/0011-3/2729.jpg","set_url":"https://rebrickable.com/sets/0011-3/castle-2-for-1-bonus-offer/","last_modified_dt":"2012-04-01T04:47:31.488559Z"},{"set_num":"0012-1","name":"Space Mini-Figures","year":1979,"theme_id":143,"num_parts":12,"set_img_url":"https://cdn.rebrickable.com/media/sets/0012-1/1831.jpg","set_url":"https://rebrickable.com/sets/0012-1/space-mini-figures/","last_modified_dt":"2013-12-12T23:12:14.245364Z"},{"set_num":"0013-1","name":"Space Mini-Figures","year":1979,"theme_id":143,"num_parts":12,"set_img_url":"https://cdn.rebrickable.com/media/sets/0013-1/1988.jpg","set_url":"https://rebrickable.com/sets/0013-1/space-mini-figures/","last_modified_dt":"2013-11-08T20:55:48.506908Z"},{"set_num":"0014-1","name":"Space Mini-Figures","year":1979,"theme_id":143,"num_parts":12,"set_img_url":"https://cdn.rebrickable.com/media/sets/0014-1/2003.jpg","set_url":"https://rebrickable.com/sets/0014-1/space-mini-figures/","last_modified_dt":"2013-11-08T20:58:36.599408Z"},{"set_num":"0015-1","name":"Space Mini-Figures","year":1979,"theme_id":143,"num_parts":18,"set_img_url":"https://cdn.rebrickable.com/media/sets/0015-1/13050.jpg","set_url":"https://rebrickable.com/sets/0015-1/space-mini-figures/","last_modified_dt":"2013-12-12T23:11:52.018183Z"},{"set_num":"0016-1","name":"Castle Mini Figures","year":1979,"theme_id":186,"num_parts":15,"set_img_url":"https://cdn.rebrickable.com/media/sets/0016-1/9284.jpg","set_url":"https://rebrickable.com/sets/0016-1/castle-mini-figures/","last_modified_dt":"2021-05-11T13:21:27.425619Z"},{"set_num":"002-1","name":"4.5V Samsonite Gears Motor Set","year":1965,"theme_id":1,"num_parts":3,"set_img_url":"https://cdn.rebrickable.com/media/sets/002-1/3643.jpg","set_url":"https://rebrickable.com/sets/002-1/45v-samsonite-gears-motor-set/","last_modified_dt":"2018-05-06T11:34:38.029101Z"},{"set_num":"003-1","name":"Master Mechanic Set","year":1966,"theme_id":366,"num_parts":403,"set_img_url":"https://cdn.rebrickable.com/media/sets/003-1/3651.jpg","set_url":"https://rebrickable.com/sets/003-1/master-mechanic-set/","last_modified_dt":"2018-05-06T11:42:53.092590Z"},{"set_num":"005-1","name":"Basic Building Set in Cardboard","year":1965,"theme_id":366,"num_parts":35,"set_img_url":"https://cdn.rebrickable.com/media/sets/005-1/3359.jpg","set_url":"https://rebrickable.com/sets/005-1/basic-building-set-in-cardboard/","last_modified_dt":"2013-05-20T01:00:32.791127Z"},{"set_num":"005-2","name":"Discovery Set","year":1967,"theme_id":366,"num_parts":0,"set_img_url":"https://cdn.rebrickable.com/media/sets/005-2/3983.jpg","set_url":"https://rebrickable.com/sets/005-2/discovery-set/","last_modified_dt":"2018-05-07T13:58:52.470945Z"},{"set_num":"00-6","name":"Special Offer","year":1985,"theme_id":67,"num_parts":0,"set_img_url":"https://cdn.rebrickable.com/media/sets/00-6/7158.jpg","set_url":"https://rebrickable.com/sets/00-6/special-offer/","last_modified_dt":"2012-04-14T23:45:31.704169Z"},{"set_num":"010-1","name":"Basic Building Set in Cardboard","year":1965,"theme_id":366,"num_parts":57,"set_img_url":"https://cdn.rebrickable.com/media/sets/010-1/11511.jpg","set_url":"https://rebrickable.com/sets/010-1/basic-building-set-in-cardboard/","last_modified_dt":"2011-09
2021-06-20 18:25:39.666 6424-6468/com.example.mylego D/OkHttp: -16T14:00:00Z"},{"set_num":"010-3","name":"Basic Building Set","year":1968,"theme_id":366,"num_parts":77,"set_img_url":"https://cdn.rebrickable.com/media/sets/010-3/7168.jpg","set_url":"https://rebrickable.com/sets/010-3/basic-building-set/","last_modified_dt":"2011-09-16T14:00:00Z"},{"set_num":"011-1","name":"Basic Building Set","year":1968,"theme_id":366,"num_parts":145,"set_img_url":"https://cdn.rebrickable.com/media/sets/011-1/86887.jpg","set_url":"https://rebrickable.com/sets/011-1/basic-building-set/","last_modified_dt":"2015-07-04T05:49:23.163272Z"},{"set_num":"021-1","name":"Wheel Set","year":1966,"theme_id":366,"num_parts":183,"set_img_url":"https://cdn.rebrickable.com/media/sets/021-1/4000.jpg","set_url":"https://rebrickable.com/sets/021-1/wheel-set/","last_modified_dt":"2018-05-07T14:06:56.179836Z"},{"set_num":"022-1","name":"Basic Building Set","year":1968,"theme_id":366,"num_parts":110,"set_img_url":"https://cdn.rebrickable.com/media/sets/022-1/3389.jpg","set_url":"https://rebrickable.com/sets/022-1/basic-building-set/","last_modified_dt":"2011-09-16T14:00:00Z"},{"set_num":"0241187567-1","name":"Ninjago: Build Your Own Adventure","year":2015,"theme_id":497,"num_parts":74,"set_img_url":"https://cdn.rebrickable.com/media/sets/0241187567-1/73972.jpg","set_url":"https://rebrickable.com/sets/0241187567-1/ninjago-build-your-own-adventure/","last_modified_dt":"2021-03-10T19:58:07.638459Z"},{"set_num":"0241199312-1","name":"DC Super Heroes: Character Encyclopedia","year":2016,"theme_id":497,"num_parts":7,"set_img_url":"https://cdn.rebrickable.com/media/sets/0241199312-1/14259.jpg","set_url":"https://rebrickable.com/sets/0241199312-1/dc-super-heroes-character-encyclopedia/","last_modified_dt":"2021-02-27T20:02:54.502155Z"},{"set_num":"0241357594-1","name":"Star Wars Build Your Own Adventure: Galactic Missions","year":2019,"theme_id":497,"num_parts":70,"set_img_url":"https://cdn.rebrickable.com/media/sets/0241357594-1/13714.jpg","set_url":"https://rebrickable.com/sets/0241357594-1/star-wars-build-your-own-adventure-galactic-missions/","last_modified_dt":"2021-06-02T13:27:36.986907Z"},{"set_num":"028-1","name":"Nursery Furniture","year":1979,"theme_id":652,"num_parts":7,"set_img_url":"https://cdn.rebrickable.com/media/sets/028-1/4990.jpg","set_url":"https://rebrickable.com/sets/028-1/nursery-furniture/","last_modified_dt":"2018-07-26T05:11:31.303485Z"},{"set_num":"030-2","name":"Building Set","year":1973,"theme_id":505,"num_parts":29,"set_img_url":null,"set_url":"https://rebrickable.com/sets/030-2/building-set/","last_modified_dt":"2019-05-24T03:42:38.152703Z"},{"set_num":"03093-1","name":"The Race to Build It Board Game","year":1999,"theme_id":502,"num_parts":73,"set_img_url":"https://cdn.rebrickable.com/media/sets/03093-1/14119.jpg","set_url":"https://rebrickable.com/sets/03093-1/the-race-to-build-it-board-game/","last_modified_dt":"2016-04-23T11:53:58.320249Z"},{"set_num":"032-1","name":"Living Room","year":1979,"theme_id":652,"num_parts":14,"set_img_url":"https://cdn.rebrickable.com/media/sets/032-1/1292.jpg","set_url":"https://rebrickable.com/sets/032-1/living-room/","last_modified_dt":"2018-07-26T21:59:20.103614Z"},{"set_num":"033-1","name":"Farm Animals","year":1979,"theme_id":632,"num_parts":21,"set_img_url":"https://cdn.rebrickable.com/media/sets/033-1/9845.jpg","set_url":"https://rebrickable.com/sets/033-1/farm-animals/","last_modified_dt":"2019-07-18T22:21:34.338217Z"},{"set_num":"033-2","name":"Basic Building Set","year":1968,"theme_id":366,"num_parts":177,"set_img_url":"https://cdn.rebrickable.com/media/sets/033-2/3393.jpg","set_url":"https://rebrickable.com/sets/033-2/basic-building-set/","last_modified_dt":"2011-09-16T14:00:00Z"},{"set_num":"041-1","name":"Pre-School Beginners Set","year":1964,"theme_id":440,"num_parts":24,"set_img_url":"https://cdn.rebrickable.com/media/sets/041-1/4097.jpg","set_url":"https://rebrickable.com/sets/041-1/pre-school-beginners-set/","last_modified_dt":"2018-05-07T14:25:09.528312Z
2021-06-20 18:25:39.667 6424-6468/com.example.mylego D/OkHttp: "},{"set_num":"041-2","name":"Playhouse","year":1979,"theme_id":652,"num_parts":1,"set_img_url":"https://cdn.rebrickable.com/media/sets/041-2/14741.jpg","set_url":"https://rebrickable.com/sets/041-2/playhouse/","last_modified_dt":"2018-07-26T22:12:14.367914Z"},{"set_num":"042-1","name":"Jumbo Brick Pull Toy","year":1966,"theme_id":440,"num_parts":9,"set_img_url":"https://cdn.rebrickable.com/media/sets/042-1/4102.jpg","set_url":"https://rebrickable.com/sets/042-1/jumbo-brick-pull-toy/","last_modified_dt":"2018-05-07T14:29:04.313518Z"},{"set_num":"044-1","name":"Basic Building Set","year":1968,"theme_id":366,"num_parts":225,"set_img_url":"https://cdn.rebrickable.com/media/sets/044-1/1232.jpg","set_url":"https://rebrickable.com/sets/044-1/basic-building-set/","last_modified_dt":"2011-09-16T14:00:00Z"},{"set_num":"044-2","name":"Jumbo Bricks","year":1969,"theme_id":440,"num_parts":30,"set_img_url":"https://cdn.rebrickable.com/media/sets/044-2/17463.jpg","set_url":"https://rebrickable.com/sets/044-2/jumbo-bricks/","last_modified_dt":"2018-05-07T14:33:39.090954Z"},{"set_num":"045-1","name":"Farm","year":1979,"theme_id":632,"num_parts":66,"set_img_url":"https://cdn.rebrickable.com/media/sets/045-1/15367.jpg","set_url":"https://rebrickable.com/sets/045-1/farm/","last_modified_dt":"2019-07-18T22:21:21.270551Z"},{"set_num":"045-2","name":"Assorted Clear Bricks & Plates","year":1969,"theme_id":371,"num_parts":37,"set_img_url":null,"set_url":"https://rebrickable.com/sets/045-2/assorted-clear-bricks-plates/","last_modified_dt":"2020-07-13T18:19:00.040848Z"},{"set_num":"050-2","name":"Lighting Device Pack","year":1969,"theme_id":371,"num_parts":4,"set_img_url":"https://cdn.rebrickable.com/media/sets/050-2/4104.jpg","set_url":"https://rebrickable.com/sets/050-2/lighting-device-pack/","last_modified_dt":"2018-05-07T14:43:24.451835Z"},{"set_num":"051-1","name":"Assorted Basic Bricks - Red","year":1966,"theme_id":371,"num_parts":50,"set_img_url":"https://cdn.rebrickable.com/media/sets/051-1/4106.jpg","set_url":"https://rebrickable.com/sets/051-1/assorted-basic-bricks-red/","last_modified_dt":"2018-05-07T14:46:28.053449Z"},{"set_num":"052-1","name":"Assorted Basic Bricks - White","year":1966,"theme_id":371,"num_parts":50,"set_img_url":"https://cdn.rebrickable.com/media/sets/052-1/4112.jpg","set_url":"https://rebrickable.com/sets/052-1/assorted-basic-bricks-white/","last_modified_dt":"2018-05-07T15:02:43.672187Z"},{"set_num":"053-1","name":"Assorted Basic Bricks - Blue","year":1966,"theme_id":371,"num_parts":50,"set_img_url":"https://cdn.rebrickable.com/media/sets/053-1/4119.jpg","set_url":"https://rebrickable.com/sets/053-1/assorted-basic-bricks-blue/","last_modified_dt":"2018-05-07T15:06:32.652825Z"},{"set_num":"054-1","name":"Assorted Basic Bricks - Yellow","year":1966,"theme_id":371,"num_parts":50,"set_img_url":"https://cdn.rebrickable.com/media/sets/054-1/4125.jpg","set_url":"https://rebrickable.com/sets/054-1/assorted-basic-bricks-yellow/","last_modified_dt":"2018-05-07T15:10:58.827071Z"},{"set_num":"055-1","name":"Trees & Bushes","year":1966,"theme_id":371,"num_parts":25,"set_img_url":"https://cdn.rebrickable.com/media/sets/055-1/4131.jpg","set_url":"https://rebrickable.com/sets/055-1/trees-bushes/","last_modified_dt":"2018-05-07T15:14:43.756499Z"},{"set_num":"055-2","name":"Basic Building Set","year":1968,"theme_id":366,"num_parts":256,"set_img_url":"https://cdn.rebrickable.com/media/sets/055-2/11691.jpg","set_url":"https://rebrickable.com/sets/055-2/basic-building-set/","last_modified_dt":"2011-09-16T14:00:00Z"},{"set_num":"057-1","name":"Large Wheels","year":1966,"theme_id":371,"num_parts":17,"set_img_url":"https://cdn.rebrickable.com/media/sets/057-1/14970.jpg","set_url":"https://rebrickable.com/sets/057-1/large-wheels/","last_modified_dt":"2018-05-07T15:19:40.036765Z"},{"set_num":"058-1","name":"Small Wheels","year":1966,"theme_id":371,"num_parts":26,"set_img_url":"https://cdn.rebrickable.com/media/sets/058-1/14971.jpg","set_url":"htt
2021-06-20 18:25:39.667 6424-6468/com.example.mylego D/OkHttp: ps://rebrickable.com/sets/058-1/small-wheels/","last_modified_dt":"2018-05-07T19:26:01.009125Z"},{"set_num":"060-1","name":"Assorted White Plates","year":1966,"theme_id":371,"num_parts":15,"set_img_url":"https://cdn.rebrickable.com/media/sets/060-1/4154.jpg","set_url":"https://rebrickable.com/sets/060-1/assorted-white-plates/","last_modified_dt":"2018-05-07T19:26:27.882844Z"},{"set_num":"060-3","name":"Jumbo Brick School Set","year":1968,"theme_id":440,"num_parts":60,"set_img_url":"https://cdn.rebrickable.com/media/sets/060-3/4153.jpg","set_url":"https://rebrickable.com/sets/060-3/jumbo-brick-school-set/","last_modified_dt":"2018-05-07T19:26:54.100864Z"},{"set_num":"061-1","name":"Five Large Base Plates - Green","year":1966,"theme_id":371,"num_parts":5,"set_img_url":"https://cdn.rebrickable.com/media/sets/061-1/4164.jpg","set_url":"https://rebrickable.com/sets/061-1/five-large-base-plates-green/","last_modified_dt":"2018-05-07T19:27:15.561932Z"},{"set_num":"062-1","name":"Five Large Base Plates - White","year":1966,"theme_id":371,"num_parts":5,"set_img_url":"https://cdn.rebrickable.com/media/sets/062-1/4165.jpg","set_url":"https://rebrickable.com/sets/062-1/five-large-base-plates-white/","last_modified_dt":"2018-05-07T19:28:36.397904Z"},{"set_num":"063-1","name":"Five Large Base Plates - Blue","year":1966,"theme_id":371,"num_parts":5,"set_img_url":"https://cdn.rebrickable.com/media/sets/063-1/4155.jpg","set_url":"https://rebrickable.com/sets/063-1/five-large-base-plates-blue/","last_modified_dt":"2018-05-07T19:28:58.427473Z"},{"set_num":"063-2","name":"Ducks","year":1978,"theme_id":505,"num_parts":18,"set_img_url":"https://cdn.rebrickable.com/media/sets/063-2/11176.jpg","set_url":"https://rebrickable.com/sets/063-2/ducks/","last_modified_dt":"2019-05-06T18:07:09.722796Z"},{"set_num":"065-1","name":"Two Garage Door Kits","year":1969,"theme_id":371,"num_parts":6,"set_img_url":"https://cdn.rebrickable.com/media/sets/065-1/4167.jpg","set_url":"https://rebrickable.com/sets/065-1/two-garage-door-kits/","last_modified_dt":"2018-05-07T19:29:26.612315Z"},{"set_num":"066-1","name":"Basic Building Set","year":1968,"theme_id":366,"num_parts":407,"set_img_url":"https://cdn.rebrickable.com/media/sets/066-1/11692.jpg","set_url":"https://rebrickable.com/sets/066-1/basic-building-set/","last_modified_dt":"2011-09-16T14:00:00Z"},{"set_num":"071-1","name":"Block Box","year":1979,"theme_id":505,"num_parts":24,"set_img_url":"https://cdn.rebrickable.com/media/sets/071-1/11175.jpg","set_url":"https://rebrickable.com/sets/071-1/block-box/","last_modified_dt":"2019-05-06T18:06:55.333918Z"},{"set_num":"074-1","name":"Pre-School Set","year":1976,"theme_id":505,"num_parts":20,"set_img_url":"https://cdn.rebrickable.com/media/sets/074-1/10043.jpg","set_url":"https://rebrickable.com/sets/074-1/pre-school-set/","last_modified_dt":"2018-08-13T03:59:32.031245Z"},{"set_num":"0744023726-1","name":"Disney Princess: Enchanted Treasury","year":2020,"theme_id":497,"num_parts":4,"set_img_url":"https://cdn.rebrickable.com/media/sets/0744023726-1/73567.jpg","set_url":"https://rebrickable.com/sets/0744023726-1/disney-princess-enchanted-treasury/","last_modified_dt":"2020-10-03T23:59:56.642463Z"},{"set_num":"0744023734-1","name":"LEGO Minifigure: A Visual History New Edition","year":2020,"theme_id":497,"num_parts":5,"set_img_url":"https://cdn.rebrickable.com/media/sets/0744023734-1/73577.jpg","set_url":"https://rebrickable.com/sets/0744023734-1/lego-minifigure-a-visual-history-new-edition/","last_modified_dt":"2021-01-31T23:26:33.744867Z"},{"set_num":"0744024471-1","name":"100 Ways to Rebuild the World","year":2020,"theme_id":497,"num_parts":0,"set_img_url":"https://cdn.rebrickable.com/media/sets/0744024471-1/73572.jpg","set_url":"https://rebrickable.com/sets/0744024471-1/100-ways-to-rebuild-the-world/","last_modified_dt":"2020-10-05T17:12:03.744403Z"},{"set_num":"075-1","name":"Pre-School Set","year":1975,"theme_id":505,"num_parts":17,"set_img_url":"https://cdn.rebricka
2021-06-20 18:25:39.667 6424-6468/com.example.mylego D/OkHttp: ble.com/media/sets/075-1/10047.jpg","set_url":"https://rebrickable.com/sets/075-1/pre-school-set/","last_modified_dt":"2018-08-13T04:04:41.516177Z"},{"set_num":"0751359483-1","name":"The Ultimate LEGO Book","year":1999,"theme_id":497,"num_parts":0,"set_img_url":"https://cdn.rebrickable.com/media/sets/0751359483-1/58393.jpg","set_url":"https://rebrickable.com/sets/0751359483-1/the-ultimate-lego-book/","last_modified_dt":"2020-04-25T17:51:41.585523Z"},{"set_num":"0756668530-1","name":"Atlantis: Brickmaster","year":2010,"theme_id":497,"num_parts":157,"set_img_url":"https://cdn.rebrickable.com/media/sets/0756668530-1/11758.jpg","set_url":"https://rebrickable.com/sets/0756668530-1/atlantis-brickmaster/","last_modified_dt":"2019-02-16T04:53:27.770475Z"},{"set_num":"0756672805-1","name":"Pirates: Brickmaster","year":2009,"theme_id":497,"num_parts":162,"set_img_url":"https://cdn.rebrickable.com/media/sets/0756672805-1/17459.jpg","set_url":"https://rebrickable.com/sets/0756672805-1/pirates-brickmaster/","last_modified_dt":"2019-02-16T04:53:11.554637Z"},{"set_num":"0756682762-1","name":"Ninjago Brickmaster","year":2011,"theme_id":497,"num_parts":154,"set_img_url":"https://cdn.rebrickable.com/media/sets/0756682762-1/17379.jpg","set_url":"https://rebrickable.com/sets/0756682762-1/ninjago-brickmaster/","last_modified_dt":"2019-05-21T14:55:39.670806Z"},{"set_num":"0756692571-1","name":"Harry Potter Characters of the Magical World","year":2012,"theme_id":497,"num_parts":4,"set_img_url":"https://cdn.rebrickable.com/media/sets/0756692571-1/17359.jpg","set_url":"https://rebrickable.com/sets/0756692571-1/harry-potter-characters-of-the-magical-world/","last_modified_dt":"2019-04-14T21:04:51.614366Z"},{"set_num":"0756698126-1","name":"Ninjago: Character Encyclopedia","year":2012,"theme_id":497,"num_parts":5,"set_img_url":"https://cdn.rebrickable.com/media/sets/0756698126-1/73783.jpg","set_url":"https://rebrickable.com/sets/0756698126-1/ninjago-character-encyclopedia/","last_modified_dt":"2019-02-16T04:56:53.128681Z"},{"set_num":"077-1","name":"Pre-School Set","year":1975,"theme_id":505,"num_parts":21,"set_img_url":"https://cdn.rebrickable.com/media/sets/077-1/75684.jpg","set_url":"https://rebrickable.com/sets/077-1/pre-school-set/","last_modified_dt":"2018-08-13T04:08:05.238695Z"},{"set_num":"078-1","name":"Roadway Base Plate","year":1970,"theme_id":371,"num_parts":1,"set_img_url":"https://cdn.rebrickable.com/media/sets/078-1/4175.jpg","set_url":"https://rebrickable.com/sets/078-1/roadway-base-plate/","last_modified_dt":"2018-05-07T19:29:56.245064Z"},{"set_num":"080-1","name":"Basic Building Set with Train","year":1967,"theme_id":366,"num_parts":712,"set_img_url":"https://cdn.rebrickable.com/media/sets/080-1/9464.jpg","set_url":"https://rebrickable.com/sets/080-1/basic-building-set-with-train/","last_modified_dt":"2014-12-12T12:55:47.716135Z"},{"set_num":"080-3","name":"Police Station","year":1976,"theme_id":505,"num_parts":25,"set_img_url":"https://cdn.rebrickable.com/media/sets/080-3/10044.jpg","set_url":"https://rebrickable.com/sets/080-3/police-station/","last_modified_dt":"2021-02-05T16:36:21.070088Z"},{"set_num":"082-1","name":"Legoville","year":1976,"theme_id":505,"num_parts":63,"set_img_url":null,"set_url":"https://rebrickable.com/sets/082-1/legoville/","last_modified_dt":"2020-01-22T18:59:19.970271Z"},{"set_num":"086-1","name":"Tub Boat","year":1978,"theme_id":632,"num_parts":3,"set_img_url":"https://cdn.rebrickable.com/media/sets/086-1/13187.jpg","set_url":"https://rebrickable.com/sets/086-1/tub-boat/","last_modified_dt":"2018-07-30T03:59:30.213271Z"},{"set_num":"088-1","name":"Super Set","year":1969,"theme_id":469,"num_parts":615,"set_img_url":"https://cdn.rebrickable.com/media/sets/088-1/3388.jpg","set_url":"https://rebrickable.com/sets/088-1/super-set/","last_modified_dt":"2013-12-11T21:46:14.840042Z"},{"set_num":"10000-1","name":"Guarded Inn","year":2001,"theme_id":199,"num_parts":256,"set_img_url":"https://cdn.rebrickable.com/media/
2021-06-20 18:25:39.667 6424-6468/com.example.mylego D/OkHttp: sets/10000-1/10910.jpg","set_url":"https://rebrickable.com/sets/10000-1/guarded-inn/","last_modified_dt":"2020-03-24T20:46:40.693613Z"},{"set_num":"1000-1","name":"Mosaic Set","year":1985,"theme_id":516,"num_parts":190,"set_img_url":"https://cdn.rebrickable.com/media/sets/1000-1/10763.jpg","set_url":"https://rebrickable.com/sets/1000-1/mosaic-set/","last_modified_dt":"2019-05-25T13:27:54.531322Z"},{"set_num":"10001-1","name":"Metroliner","year":2001,"theme_id":233,"num_parts":787,"set_img_url":"https://cdn.rebrickable.com/media/sets/10001-1/54443.jpg","set_url":"https://rebrickable.com/sets/10001-1/metroliner/","last_modified_dt":"2019-12-27T19:53:24.531419Z"},{"set_num":"10002-1","name":"Railroad Club Car","year":2001,"theme_id":233,"num_parts":293,"set_img_url":"https://cdn.rebrickable.com/media/sets/10002-1/86809.jpg","set_url":"https://rebrickable.com/sets/10002-1/railroad-club-car/","last_modified_dt":"2019-08-25T10:10:11.025003Z"},{"set_num":"10003-1","name":"1 x 2 Sand Red Bricks","year":2001,"theme_id":254,"num_parts":100,"set_img_url":"https://cdn.rebrickable.com/media/sets/10003-1/3400.jpg","set_url":"https://rebrickable.com/sets/10003-1/1-x-2-sand-red-bricks/","last_modified_dt":"2011-09-05T14:00:00Z"},{"set_num":"10004-1","name":"2 x 2 Sand Red Bricks","year":2001,"theme_id":254,"num_parts":100,"set_img_url":"https://cdn.rebrickable.com/media/sets/10004-1/3401.jpg","set_url":"https://rebrickable.com/sets/10004-1/2-x-2-sand-red-bricks/","last_modified_dt":"2011-09-05T14:00:00Z"},{"set_num":"10005-1","name":"2 x 4 Sand Red Bricks","year":2001,"theme_id":254,"num_parts":50,"set_img_url":"https://cdn.rebrickable.com/media/sets/10005-1/11503.jpg","set_url":"https://rebrickable.com/sets/10005-1/2-x-4-sand-red-bricks/","last_modified_dt":"2011-09-05T14:00:00Z"},{"set_num":"10006-1","name":"1 x 6 Sand Red Bricks","year":2001,"theme_id":254,"num_parts":50,"set_img_url":"https://cdn.rebrickable.com/media/sets/10006-1/11504.jpg","set_url":"https://rebrickable.com/sets/10006-1/1-x-6-sand-red-bricks/","last_modified_dt":"2011-09-05T14:00:00Z"},{"set_num":"10007-1","name":"2 x 4 Sand Red Ridge Roof Tiles Steep Slope","year":2001,"theme_id":254,"num_parts":25,"set_img_url":"https://cdn.rebrickable.com/media/sets/10007-1/4786.jpg","set_url":"https://rebrickable.com/sets/10007-1/2-x-4-sand-red-ridge-roof-tiles-steep-slope/","last_modified_dt":"2011-09-05T14:00:00Z"},{"set_num":"10008-1","name":"2 x 4 Roof Tile Sand Red","year":2001,"theme_id":254,"num_parts":50,"set_img_url":"https://cdn.rebrickable.com/media/sets/10008-1/9687.jpg","set_url":"https://rebrickable.com/sets/10008-1/2-x-4-roof-tile-sand-red/","last_modified_dt":"2011-09-05T14:00:00Z"},{"set_num":"10009-1","name":"Assorted Blue Bricks","year":2001,"theme_id":254,"num_parts":62,"set_img_url":"https://cdn.rebrickable.com/media/sets/10009-1/9826.jpg","set_url":"https://rebrickable.com/sets/10009-1/assorted-blue-bricks/","last_modified_dt":"2011-09-05T14:00:00Z"},{"set_num":"100-1","name":"4.5V Motor with Wheels (Small Version)","year":1966,"theme_id":243,"num_parts":16,"set_img_url":"https://cdn.rebrickable.com/media/sets/100-1/1756.jpg","set_url":"https://rebrickable.com/sets/100-1/45v-motor-with-wheels-small-version/","last_modified_dt":"2011-09-05T14:00:00Z"},{"set_num":"10010-1","name":"Assorted Yellow Bricks","year":2003,"theme_id":254,"num_parts":63,"set_img_url":"https://cdn.rebrickable.com/media/sets/10010-1/2984.jpg","set_url":"https://rebrickable.com/sets/10010-1/assorted-yellow-bricks/","last_modified_dt":"2011-09-05T14:00:00Z"},{"set_num":"10011-1","name":"Assorted Blue Plates","year":2001,"theme_id":254,"num_parts":42,"set_img_url":"https://cdn.rebrickable.com/media/sets/10011-1/8979.jpg","set_url":"https://rebrickable.com/sets/10011-1/assorted-blue-plates/","last_modified_dt":"2011-09-05T14:00:00Z"},{"set_num":"10012-1","name":"Assorted Yellow Plates","year":2001,"theme_id":254,"num_parts":42,"set_img_url":"https://cdn.rebrickable.com/media/sets/10012-1/3062.
2021-06-20 18:25:39.667 6424-6468/com.example.mylego D/OkHttp: jpg","set_url":"https://rebrickable.com/sets/10012-1/assorted-yellow-plates/","last_modified_dt":"2011-09-05T14:00:00Z"},{"set_num":"10013-1","name":"Open Freight Wagon","year":2001,"theme_id":238,"num_parts":121,"set_img_url":"https://cdn.rebrickable.com/media/sets/10013-1/86810.jpg","set_url":"https://rebrickable.com/sets/10013-1/open-freight-wagon/","last_modified_dt":"2014-08-06T20:12:33.332545Z"},{"set_num":"10014-1","name":"Caboose","year":2001,"theme_id":238,"num_parts":170,"set_img_url":"https://cdn.rebrickable.com/media/sets/10014-1/86811.jpg","set_url":"https://rebrickable.com/sets/10014-1/caboose/","last_modified_dt":"2016-04-23T11:34:34.053738Z"},{"set_num":"10015-1","name":"Passenger Wagon","year":2001,"theme_id":238,"num_parts":194,"set_img_url":"https://cdn.rebrickable.com/media/sets/10015-1/86812.jpg","set_url":"https://rebrickable.com/sets/10015-1/passenger-wagon/","last_modified_dt":"2016-04-23T11:44:37.077676Z"},{"set_num":"10016-1","name":"Tanker","year":2001,"theme_id":238,"num_parts":128,"set_img_url":"https://cdn.rebrickable.com/media/sets/10016-1/86815.jpg","set_url":"https://rebrickable.com/sets/10016-1/tanker/","last_modified_dt":"2011-09-05T14:00:00Z"},{"set_num":"10017-1","name":"Hopper Wagon","year":2001,"theme_id":238,"num_parts":228,"set_img_url":"https://cdn.rebrickable.com/media/sets/10017-1/86813.jpg","set_url":"https://rebrickable.com/sets/10017-1/hopper-wagon/","last_modified_dt":"2011-09-05T14:00:00Z"},{"set_num":"10018-1","name":"Darth Maul","year":2001,"theme_id":171,"num_parts":1868,"set_img_url":"https://cdn.rebrickable.com/media/sets/10018-1/6651.jpg","set_url":"https://rebrickable.com/sets/10018-1/darth-maul/","last_modified_dt":"2019-12-01T14:01:17.839410Z"},{"set_num":"10019-1","name":"Rebel Blockade Runner - UCS","year":2001,"theme_id":171,"num_parts":1748,"set_img_url":"https://cdn.rebrickable.com/media/sets/10019-1/14107.jpg","set_url":"https://rebrickable.com/sets/10019-1/rebel-blockade-runner-ucs/","last_modified_dt":"2019-11-02T18:59:11.023082Z"},{"set_num":"100-2","name":"4.5V Motor with Wheels (Large Version)","year":1966,"theme_id":243,"num_parts":27,"set_img_url":"https://cdn.rebrickable.com/media/sets/100-2/2459.jpg","set_url":"https://rebrickable.com/sets/100-2/45v-motor-with-wheels-large-version/","last_modified_dt":"2011-09-05T14:00:00Z"},{"set_num":"10020-1","name":"Santa Fe Super Chief","year":2002,"theme_id":236,"num_parts":435,"set_img_url":"https://cdn.rebrickable.com/media/sets/10020-1/17555.jpg","set_url":"https://rebrickable.com/sets/10020-1/santa-fe-super-chief/","last_modified_dt":"2019-12-18T08:48:17.507178Z"},{"set_num":"10020-2","name":"Santa Fe Super Chief - Limited Edition","year":2002,"theme_id":236,"num_parts":441,"set_img_url":"https://cdn.rebrickable.com/media/sets/10020-2/16601.jpg","set_url":"https://rebrickable.com/sets/10020-2/santa-fe-super-chief-limited-edition/","last_modified_dt":"2020-03-26T19:33:06.078237Z"},{"set_num":"10021-1","name":"U.S.S. Constellation","year":2003,"theme_id":404,"num_parts":975,"set_img_url":"https://cdn.rebrickable.com/media/sets/10021-1/6650.jpg","set_url":"https://rebrickable.com/sets/10021-1/uss-constellation/","last_modified_dt":"2020-03-24T20:45:12.418844Z"},{"set_num":"10022-1","name":"Santa Fe Cars - Set II (dining, observation, or sleeping car)","year":2002,"theme_id":237,"num_parts":411,"set_img_url":"https://cdn.rebrickable.com/media/sets/10022-1/86843.jpg","set_url":"https://rebrickable.com/sets/10022-1/santa-fe-cars-set-ii-dining-observation-or-sleeping-car/","last_modified_dt":"2016-04-23T11:35:10.176660Z"},{"set_num":"10023-1","name":"Master Builder Set","year":2002,"theme_id":324,"num_parts":111,"set_img_url":"https://cdn.rebrickable.com/media/sets/10023-1/1224.jpg","set_url":"https://rebrickable.com/sets/10023-1/master-builder-set/","last_modified_dt":"2016-04-23T11:35:26.427983Z"},{"set_num":"10024-1","name":"Red Baron","year":2002,"theme_id":673,"num_parts":670,"set_img_url":"https://cdn.rebrickable
2021-06-20 18:25:39.667 6424-6468/com.example.mylego D/OkHttp: .com/media/sets/10024-1/5148.jpg","set_url":"https://rebrickable.com/sets/10024-1/red-baron/","last_modified_dt":"2019-08-22T09:36:43.873379Z"},{"set_num":"10025-1","name":"Santa Fe Cars - Set I (mail or baggage car)","year":2002,"theme_id":237,"num_parts":326,"set_img_url":"https://cdn.rebrickable.com/media/sets/10025-1/86842.jpg","set_url":"https://rebrickable.com/sets/10025-1/santa-fe-cars-set-i-mail-or-baggage-car/","last_modified_dt":"2016-04-23T11:49:14.559117Z"}]}